…
``` r
# install.packages("remotes")
remotes::install_github("mrchypark/KGSS")
```

## Example

use data

``` r
library(KGSS)
data(kgss)
kgss
#> # A tibble: 18,605 x 2,936
#>     YEAR RESPID   SEX   AGE MARITAL EMPLY WHYNOE  EDUC GRADUATE DROPYR
#>    <dbl>  <dbl> <dbl> <dbl>   <dbl> <dbl>  <dbl> <dbl>    <dbl>  <dbl>
#>  1  2003    102     1    31       5     1     -1     3        1     -1
#>  2  2003    104     1    30       5     1     -1     3        1     -1
#>  3  2003    105     2    30       5     1     -1     4        1     -1
#>  4  2003    106     2    34       5     1     -1     6        1     -1
#>  5  2003    108     1    34       1     1     -1     5        1     -1
#>  6  2003    109     2    30       5     1     -1     5        1     -1
#>  7  2003    110     1    33       1     1     -1     5        1     -1
#>  8  2003    201     1    68       1     2      4     5        1     -1
#>  9  2003    202     2    41       1     1     -1     5        1     -1
#> 10  2003    203     1    51       1     1     -1     6        1     -1
#> # ... with 18,595 more rows, and 2,926 more variables: CURRYR <dbl>,
#> #   HIEDUCYR <dbl>, SPEDUC <dbl>, SPGRAD <dbl>, SPDROPYR <dbl>,
#> #   SPCURRYR <dbl>, PAEDUC <dbl>, PAGRAD <dbl>, PADROPYR <dbl>,
#> #   PACURRYR <dbl>, MAEDUC <dbl>, MAGRAD <dbl>, MADROPYR <dbl>,
#> #   MACURRYR <dbl>, EMPED <dbl>, WGSTAT <dbl>, WGPTFL <dbl>, WGWKHR <dbl>,
#> #   WGSTAB <dbl>, WGTENYR <dbl>, WGTENMO <dbl>, NUMPRMT <dbl>,
#> #   WGSECT <dbl>, WGUNN <dbl>, WGUNNP <dbl>, WGPOSTN <dbl>, WGNOEMP <dbl>,
#> #   SFSTAT <dbl>, SFNOHI <dbl>, SFPTFL <dbl>, SFWKHR <dbl>, SFTENYR <dbl>,
#> #   SFTENMO <dbl>, SFWHY <dbl>, NUMSUP <dbl>, EMSUBO <dbl>, WHYUNEM <dbl>,
…
